<?xml version="1.0" encoding="UTF-8" standalone="no"?>
<!-- Created with Inkscape (http://www.inkscape.org/) -->
<svg xmlns:dc="http://purl.org/dc/elements/1.1/" xmlns:cc="http://creativecommons.org/ns#" xmlns:rdf="http://www.w3.org/1999/02/22-rdf-syntax-ns#" xmlns:svg="http://www.w3.org/2000/svg" xmlns="http://www.w3.org/2000/svg" xmlns:sodipodi="http://sodipodi.sourceforge.net/DTD/sodipodi-0.dtd" xmlns:inkscape="http://www.inkscape.org/namespaces/inkscape" width="1000" height="1000" viewBox="0 0 1000 1000" id="svg3402" version="1.1">
  <defs id="defs3404"/>
  
  <metadata id="metadata3407">
    
  </metadata>
  <g id="layer1" transform="translate(0,-52.362161)">
    <path style="fill:#8a715e;fill-opacity:1;fill-rule:evenodd;stroke:none;stroke-width:0;stroke-linecap:butt;stroke-linejoin:miter;stroke-miterlimit:4;stroke-dasharray:none;stroke-opacity:1" d="M 500 120 L 250 560 L 0 1000 L 500 1000 L 1000 1000 L 750 560 L 602.93164 301.16016 L 500 404.0918 L 500 120 z " transform="translate(0,52.362161)" id="path3410"/>
    <path style="fill:#3d211b;fill-opacity:1;fill-rule:evenodd;stroke:none;stroke-width:0;stroke-linecap:butt;stroke-linejoin:miter;stroke-miterlimit:4;stroke-dasharray:none;stroke-opacity:1" id="path3410-3" d="m 1015.2563,1051.8622 -507.19513,0 L 0.86600981,1051.8621 254.46355,612.61826 508.06116,173.37439 761.65875,612.61825 Z" transform="matrix(0.49290693,0,0,0.50086069,249.57314,525.52573)"/>
  </g>
</svg>
